Run Optimization and Create Paper Figures • covidsens
…
compare_sens <- vals %>%
  mutate(p = pmap_dbl(vals, possibly(get_prob_missed_infection, otherwise = NA)),
         qt = test_time + additional_quarantine_time) 

compare_sens %>%
  group_by(test_time, additional_quarantine_time, qt, max_sensitivity) %>%
  summarise(m_p = median(p, na.rm = TRUE),
            mean = mean(p, na.rm = TRUE),
            lcl = quantile(p, 0.025, na.rm = TRUE),
            ucl = quantile(p, 0.975, na.rm = TRUE),
            .groups = "drop") -> compare_sens_summ
compare_sens_summ %>%
  filter(additional_quarantine_time %in% c(0, 2))

## # A tibble: 1,128 x 8
##    test_time additional_quarantin…    qt max_sensitivity   m_p  mean   lcl   ucl
##        <dbl>                 <dbl> <dbl>           <dbl> <dbl> <dbl> <dbl> <dbl>
##  1       0                       0   0              0.5  1.00  1.00  1.00  1.00 
##  2       0                       0   0              0.75 1.00  1.00  1.00  1.00 
##  3       0                       0   0              0.9  1.00  1.00  1.00  1.00 
##  4       0                       0   0              0.99 1.00  1.00  1.00  1.00 
##  5       0                       2   2              0.5  0.952 0.952 0.952 0.952
##  6       0                       2   2              0.75 0.952 0.952 0.952 0.952
##  7       0                       2   2              0.9  0.952 0.952 0.952 0.952
##  8       0                       2   2              0.99 0.952 0.952 0.952 0.952
##  9       0.1                     0   0.1            0.5  1.00  1.00  1.00  1.00 
## 10       0.1                     0   0.1            0.75 1.00  1.00  1.00  1.00 
## # … with 1,118 more rows
…
